{
  "includeFirstLineAsNoteHeading": false,
  "excludeFirstLineInNote": false,
  "headingFormat": "#",
  "newFileLocation": 0,
  "customFolder": "",
  "fileNamePrefix": "{{date:YYYYMMDD}} - ",
  "transcludeByDefault": false,
  "noteLinkTemplate": "",
  "refactoredNoteTemplate": ""
}