{
  "commitMessage": "vault backup: {{date}}",
  "autoCommitMessage": "vault backup: {{date}}",
  "commitDateFormat": "YYYY-MM-DD HH:mm:ss",
  "autoSaveInterval": 0,
  "autoPushInterval": 0,
  "autoPullInterval": 0,
  "autoPullOnBoot": false,
  "disablePush": false,
  "pullBeforePush": true,
  "disablePopups": false,
  "listChangedFilesInMessageBody": false,
  "showStatusBar": true,
  "updateSubmodules": false,
  "syncMethod": "merge",
  "customMessageOnAutoBackup": false,
  "autoBackupAfterFileChange": true,
  "treeStructure": false,
  "refreshSourceControl": true,
  "basePath": "",
  "differentIntervalCommitAndPush": false,
  "changedFilesInStatusBar": false,
  "username": ""
}