{
  "showGettingStartedBanner": false,
  "hasMigratedDailyNoteSettings": true,
  "hasMigratedWeeklyNoteSettings": true,
  "daily": {
    "folder": "Day Planners",
    "template": "Templates/Daily Note.md",
    "enabled": true
  },
  "weekly": {
    "format": "",
    "folder": "Day Planners",
    "template": "Templates/Weekly Note.md",
    "enabled": true
  },
  "monthly": {
    "format": "",
    "template": "",
    "folder": ""
  },
  "quarterly": {
    "format": "",
    "template": "",
    "folder": ""
  },
  "yearly": {
    "format": "",
    "template": "",
    "folder": ""
  }
}