{
  "shouldConfirmBeforeCreate": true,
  "weekStart": "locale",
  "wordsPerDot": 250,
  "showWeeklyNote": true,
  "weeklyNoteFormat": "",
  "weeklyNoteTemplate": "",
  "weeklyNoteFolder": "Daily Notes",
  "localeOverride": "system-default"
}